…
loop over all couples

```{r}
spd <- couples %>% 
  pmap_dfr(.f = ~ calc_pairwise_spacing(..1, ..2, ds))
```

PROBLEM LINKED TO NA ins join/mapping
> group_data(rqq)
# A tibble: 1,204 x 4
   UID                         SEQ_UID                     RWY         .rows
   <chr>                       <chr>                       <chr> <list<int>>
 1 00b1fa-SAA234-2019-03-01-0  a8cffd-UAL110-2019-03-01-0  27L       [3,038]
 2 00b1fa-SAA234-2019-03-01-0  NA                          27L       [1,040]
 3 010154-MSR777-2019-03-01-0  407535-BAW697V-2019-03-01-0 27L       [2,263]
 4 010154-MSR777-2019-03-01-0  NA                          27L         [793]
 5 0101b6-MSR779-2019-03-01-0  4008f2-SHT9C-2019-03-01-0   27R       [2,381]
 6 0101b6-MSR779-2019-03-01-0  NA                          27R       [1,933]
 7 0200eb-RAM800F-2019-03-01-0 4007f6-BAW168-2019-03-01-0  27R       [2,332]
 8 0200eb-RAM800F-2019-03-01-0 NA                          27R         [831]
 9 02a18e-TAR790-2019-03-01-0  4ac9e5-SAS527-2019-03-01-0  27R       [2,146]
10 02a18e-TAR790-2019-03-01-0  NA                          27R         [790]
# ... with 1,194 more rows
…
